…
    ## -- Column specification --------------------------------------------------------
    ## Delimiter: ","
    ## dbl  (8): prez_gop, gov_gop, sen_gop, rep_gop, prez_dem, gov_dem, sen_dem, r...
    ## date (1): mon

    ## 
    ## i Use `spec()` to retrieve the full column specification for this data.
    ## i Specify the column types or set `show_col_types = FALSE` to quiet this message.

``` r
pols_month_df
```

    ## # A tibble: 822 x 9
    ##     year month     gov_gop sen_gop rep_gop gov_dem sen_dem rep_dem president
    ##    <dbl> <chr>       <dbl>   <dbl>   <dbl>   <dbl>   <dbl>   <dbl> <chr>    
    ##  1  1947 January        23      51     253      23      45     198 dem      
    ##  2  1947 February       23      51     253      23      45     198 dem      
    ##  3  1947 March          23      51     253      23      45     198 dem      
    ##  4  1947 April          23      51     253      23      45     198 dem      
    ##  5  1947 May            23      51     253      23      45     198 dem      
    ##  6  1947 June           23      51     253      23      45     198 dem      
    ##  7  1947 July           23      51     253      23      45     198 dem      
    ##  8  1947 August         23      51     253      23      45     198 dem      
    ##  9  1947 September      23      51     253      23      45     198 dem      
    ## 10  1947 October        23      51     253      23      45     198 dem      
    ## # ... with 812 more rows
…
    ## -- Column specification --------------------------------------------------------
    ## Delimiter: ","
    ## chr (1): date
    ## dbl (1): close

    ## 
    ## i Use `spec()` to retrieve the full column specification for this data.
    ## i Specify the column types or set `show_col_types = FALSE` to quiet this message.

``` r
snp_df
```

    ## # A tibble: 787 x 4
    ##    year  month    day   close
    ##    <chr> <chr>    <chr> <dbl>
    ##  1 1950  April    3      18.0
    ##  2 1950  August   1      18.4
    ##  3 1950  December 1      20.4
    ##  4 1950  February 1      17.2
    ##  5 1950  January  3      17.0
    ##  6 1950  July     3      17.8
    ##  7 1950  June     1      17.7
    ##  8 1950  March    1      17.3
    ##  9 1950  May      1      18.8
    ## 10 1950  November 1      19.5
    ## # ... with 777 more rows
…
    ## Rows: 68 Columns: 13

    ## -- Column specification --------------------------------------------------------
    ## Delimiter: ","
    ## dbl (13): Year, Jan, Feb, Mar, Apr, May, Jun, Jul, Aug, Sep, Oct, Nov, Dec

    ## 
    ## i Use `spec()` to retrieve the full column specification for this data.
    ## i Specify the column types or set `show_col_types = FALSE` to quiet this message.

``` r
unempoyment_df
```

    ## # A tibble: 816 x 3
    ##     year month     percentage
    ##    <dbl> <chr>          <dbl>
    ##  1  1948 May              3.4
    ##  2  1948 April            3.8
    ##  3  1948 August           4  
    ##  4  1948 January          3.9
    ##  5  1948 September        3.5
    ##  6  1948 July             3.6
    ##  7  1948 June             3.6
    ##  8  1948 February         3.9
    ##  9  1948 December         3.8
    ## 10  1948 November         3.7
    ## # ... with 806 more rows
…
    ## -- Column specification --------------------------------------------------------
    ## Delimiter: ","
    ## chr (3): Gender, Ethnicity, Child's First Name
    ## dbl (3): Year of Birth, Count, Rank

    ## 
    ## i Use `spec()` to retrieve the full column specification for this data.
    ## i Specify the column types or set `show_col_types = FALSE` to quiet this message.

``` r
popular_baby_names_df
```

    ## # A tibble: 12,181 x 6
    ##    year_of_birth gender ethnicity                  childs_first_name count  rank
    ##            <dbl> <chr>  <chr>                      <chr>             <dbl> <dbl>
    ##  1          2016 FEMALE ASIAN AND PACIFIC ISLANDER Olivia              172     1
    ##  2          2016 FEMALE ASIAN AND PACIFIC ISLANDER Chloe               112     2
    ##  3          2016 FEMALE ASIAN AND PACIFIC ISLANDER Sophia              104     3
    ##  4          2016 FEMALE ASIAN AND PACIFIC ISLANDER Emily                99     4
    ##  5          2016 FEMALE ASIAN AND PACIFIC ISLANDER Emma                 99     4
    ##  6          2016 FEMALE ASIAN AND PACIFIC ISLANDER Mia                  79     5
    ##  7          2016 FEMALE ASIAN AND PACIFIC ISLANDER Charlotte            59     6
    ##  8          2016 FEMALE ASIAN AND PACIFIC ISLANDER Sarah                57     7
    ##  9          2016 FEMALE ASIAN AND PACIFIC ISLANDER Isabella             56     8
    ## 10          2016 FEMALE ASIAN AND PACIFIC ISLANDER Hannah               56     8
    ## # ... with 12,171 more rows
…
